{
  "type": "service_account",
  "project_id": "dorsettechhosting",
  "private_key_id": "74e72189f9c64bab5a0dbd877629c8bf17a4a21b",
  "private_key": "-----BEGIN PRIVATE KEY-----\nMIIEvgIBADANBgkqhkiG9w0BAQEFAASCBKgwggSkAgEAAoIBAQCOWQY6qAJWYbCw\nlhEdVEpsF0TdrT86kyCyHUdWqw+Gyxzfii5+b8KuT1EJS3cQq+cFMf1i6NDK1pTD\nGLzPOGWF1Q0V1MQlVzOU4tRb+vNwZ80ooFtoKOyO2ry8GVo8vOsZoMDbFoLJiKKK\nvzvj/KgnrCNQekc/yvHLgf2e1ifiRj1WGAVNkWfjnmND3CIaOxcPuzEk8VpGfIcm\nKRvRNJ7dXadi6whcdj891Nez9Wi8p+u0lVslabCHiGy7eoTEVKQVEFrMrGC9dPNz\nUq7vWELx2IOGIuMkyn/v6bSb4hfVEqUc4d3Wp8Q1o29X6PdF9VLnh2/7Mr3Si3DG\n4pqXS9rxAgMBAAECggEAGQRwYdKxRnk40nAtZdgwlDqqscMG/8Zn0qXuqb66pdgA\npRDmBvahYn0yIs4OiPGNUo5sl/uO5nc8AeXRGSIyRYkiGZohNubSe/I5nEjIjBLS\nLbexGOdIW/r5fJ2ADHivYPutqVOVfNH0rynY3sLC0uYf9r7m0sFaKYgZCNdefxfS\nA/a9hOBGEa8wULyMYvwMihWOhHwrZq3VGIRXLSd/S40TGm4+FrbZIh/NM3CwbyfD\nWEY8CZYNDIfVgIW4uepp0S2UVw1FrszdWyRSzSaN4l4o7p/BqTzYPz4HIvzx58Vu\nIVvauJEii50yaO03cQy9dFbWYsEP2oV0Q04J2k5bIQKBgQDEH/srpuGiR7qm1bUe\npz6WXZEX1+rMfsacdrJcgBwt2kYrTD9oiBJyenuWFr2Hyj/jar3xwzmP+V5TjgQc\nYbJ7BJVcmmFwO0zxRVNwL1lGFNWEKNkWqXnjjVLWOvyUmgFmkBBdGeZZUsYC8voj\nAGw0VNtK/hXa2/qZxVh0yA0C1QKBgQC5zh9OetyDpJMCzLo2zUJNnhHnSpDCFNom\ndz6RDaWFytn+KqTbJuqrzWskHWBVPLnbkZi6KDhs9KbJM0Ixc1J2r9rXr9WRx31P\nCY2rzYYZbPJjUeSp65b9d3nJ3QyzFvyqSNnyb8SBI9wW3ZWbAuXV3qJ7dQ6amrLU\nDihIYrutrQKBgQCCc+NVvcMHdj6pCi1XHld7HPGNsojzTMA/ApTRAkW8GhviYO0s\nUpYyn1XlF2sqD1U/p5iAXyLCqVQcr7H8Tt+xA/N1jRqS1F7xfPNrA5OWEfWT2rfL\nYx84RKB87u9iyK110w2PX9LgRzZ+b7AB6B4REQBseWWAFiIydhnIU+iToQKBgEin\n1FAg9Pe5NA9lNO/XBbVKOWADJWXvN3rRKDMabf5KW0HrNPnJVvyFX/8ISbIrA9Zb\nMaihr6bTaCDHHXwuxzFIBMBQrqfJpTNx3ecvf9+TXZj+3faf/DPzMzl/acbiFz0T\nLb6CfAmvlxGN5kFuOaeO3mR+Wo6ULZeETbY4fYElAoGBAK6REfvtcztGnYlk/C1n\nQvnxpMjwolN1FtCyLcCNUWXbCjXJG+wk6kDglAE1HCnqg5TQK6ia9HDGyyOcyrWZ\nWDtUZXSjEU2FODMNGUSTRBdaq+eaJimZHlKbJRQRPn8gRHGfLmE7MoGtAIgmGHtb\nMHuX2sqPHMo7juFdEC2EPjA0\n-----END PRIVATE KEY-----\n",
  "client_email": "anytimepro-app-cloud-recording@dorsettechhosting.iam.gserviceaccount.com",
  "client_id": "115237836444995848153",
  "auth_uri": "https://accounts.google.com/o/oauth2/auth",
  "token_uri": "https://oauth2.googleapis.com/token",
  "auth_provider_x509_cert_url": "https://www.googleapis.com/oauth2/v1/certs",
  "client_x509_cert_url": "https://www.googleapis.com/robot/v1/metadata/x509/anytimepro-app-cloud-recording%40dorsettechhosting.iam.gserviceaccount.com"
}
